BS Table classes 

    table
    table-bordered 
    table-borderless
    table-striped 
    table-hover 
    table-sm 
    table-success | info| warning....

    thead-dark 
    thead-light

mx-auto 
w-25 w-50 w-75 w-100


BS Buttons 
    btn 
    btn-success | info | warning ... 
    btn-block 
    btn-lg 
    btn-sm 
    btn-outline-success | info | warning ... 

disabled